<?xml version="1.0" standalone="no"?>
<!DOCTYPE svg PUBLIC "-//W3C//DTD SVG 20010904//EN"
 "http://www.w3.org/TR/2001/REC-SVG-20010904/DTD/svg10.dtd">
<svg version="1.0" xmlns="http://www.w3.org/2000/svg"
 width="500.000000pt" height="500.000000pt" viewBox="0 0 500.000000 500.000000"
 preserveAspectRatio="xMidYMid meet">
<metadata>
Created by potrace 1.11, written by Peter Selinger 2001-2013
</metadata>
<g transform="translate(0.000000,500.000000) scale(0.100000,-0.100000)"
fill="#000000" stroke="none">
<path d="M213 4982 c-63 -22 -115 -61 -154 -115 -63 -87 -59 76 -57 -2387 l3
-2245 21 -46 c31 -67 87 -124 152 -156 l57 -28 2265 0 2265 0 57 28 c65 32
121 89 152 156 l21 46 0 2265 0 2265 -28 57 c-32 65 -89 121 -156 152 l-46 21
-2250 2 c-2140 2 -2253 2 -2302 -15z m1557 -1452 l0 -690 695 0 695 0 0 690 0
690 355 0 355 0 0 -1760 0 -1760 -352 2 -353 3 -3 768 -2 767 -695 0 -695 0 0
-770 0 -770 -352 2 -353 3 -3 1758 -2 1757 355 0 355 0 0 -690z"/>
</g>
</svg>
